…
4. Refocus the data only to include country, isscaap_taxonomic_group, asfis_species_name, asfis_species_number, year, catch.

```r
fisheries_tidy%>% 
  select(country, isscaap_taxonomic_group, asfis_species_number, asfis_species_name, year, catch)
```

```
## # A tibble: 376,771 x 6
##    country isscaap_taxonomic_group asfis_species_n~ asfis_species_n~  year catch
##    <chr>   <chr>                   <chr>            <chr>            <dbl> <dbl>
##  1 Albania Sharks, rays, chimaeras 10903XXXXX       Squatinidae       1995    NA
##  2 Albania Sharks, rays, chimaeras 10903XXXXX       Squatinidae       1996    53
##  3 Albania Sharks, rays, chimaeras 10903XXXXX       Squatinidae       1997    20
##  4 Albania Sharks, rays, chimaeras 10903XXXXX       Squatinidae       1998    31
##  5 Albania Sharks, rays, chimaeras 10903XXXXX       Squatinidae       1999    30
##  6 Albania Sharks, rays, chimaeras 10903XXXXX       Squatinidae       2000    30
##  7 Albania Sharks, rays, chimaeras 10903XXXXX       Squatinidae       2001    16
##  8 Albania Sharks, rays, chimaeras 10903XXXXX       Squatinidae       2002    79
##  9 Albania Sharks, rays, chimaeras 10903XXXXX       Squatinidae       2003     1
## 10 Albania Sharks, rays, chimaeras 10903XXXXX       Squatinidae       2004     4
## # ... with 376,761 more rows
```
…
6. Which country had the largest overall catch in the year 2000?

```r
fisheries_tidy %>% 
  group_by(country) %>% 
  filter(year == 2000) %>% 
  select(country, catch) %>% 
  summarize(total_catch=sum(catch, na.rm=T)) %>% 
  arrange(desc(total_catch))
```

```
## # A tibble: 193 x 2
##    country                  total_catch
##    <chr>                          <dbl>
##  1 China                          25899
##  2 Russian Federation             12181
##  3 United States of America       11762
##  4 Japan                           8510
##  5 Indonesia                       8341
##  6 Peru                            7443
##  7 Chile                           6906
##  8 India                           6351
##  9 Thailand                        6243
## 10 Korea, Republic of              6124
## # ... with 183 more rows
```
CHINA
7. Which country caught the most sardines (_Sardina pilchardus_) between the years 1990-2000?

```r
 fisheries_tidy %>% 
   group_by(country) %>% 
   filter(between(year, 1990, 2000)) %>%   
   select(country, catch, asfis_species_name) %>% 
   filter(asfis_species_name == "Sardina pilchardus") %>% 
   summarize(total_catch=sum(catch, na.rm=T)) %>% 
   arrange(desc(total_catch))
```

```
## # A tibble: 37 x 2
##    country               total_catch
##    <chr>                       <dbl>
##  1 Morocco                      7470
##  2 Spain                        3507
##  3 Russian Federation           1639
##  4 Ukraine                      1030
##  5 France                        966
##  6 Portugal                      818
##  7 Greece                        528
##  8 Italy                         507
##  9 Serbia and Montenegro         478
## 10 Denmark                       477
## # ... with 27 more rows
```
Morocco 
8. Which five countries caught the most cephalopods between 2008-2012?

```r
fisheries_tidy %>% 
  group_by(country) %>% 
  filter(between(year, 2008, 2012)) %>%   
  select(country, catch, isscaap_taxonomic_group) %>% 
  filter(isscaap_taxonomic_group == "Squids, cuttlefishes, octopuses") %>% 
  summarize(total_catch=sum(catch, na.rm=T)) %>% 
  arrange(desc(total_catch))
```

```
## # A tibble: 122 x 2
##    country                  total_catch
##    <chr>                          <dbl>
##  1 China                           8349
##  2 Korea, Republic of              3480
##  3 Peru                            3422
##  4 Japan                           3248
##  5 Chile                           2775
##  6 United States of America        2417
##  7 Indonesia                       1622
##  8 Taiwan Province of China        1394
##  9 Spain                           1147
## 10 France                          1138
## # ... with 112 more rows
```
…
9. Which species had the highest catch total between 2008-2012? (hint: Osteichthyes is not a species)

```r
fisheries_tidy %>% 
  group_by(isscaap_taxonomic_group) %>% 
  filter(between(year, 2008, 2012)) %>%   
  select(catch, isscaap_taxonomic_group) %>% 
  summarize(total_catch=sum(catch, na.rm=T)) %>% 
  arrange(desc(total_catch))
```

```
## # A tibble: 30 x 2
##    isscaap_taxonomic_group         total_catch
##    <chr>                                 <dbl>
##  1 Miscellaneous coastal fishes         177754
##  2 Tunas, bonitos, billfishes           159544
##  3 Herrings, sardines, anchovies        151940
##  4 Miscellaneous pelagic fishes         141871
##  5 Cods, hakes, haddocks                118836
##  6 Marine fishes not identified         107808
##  7 Miscellaneous demersal fishes         86185
##  8 Sharks, rays, chimaeras               62381
##  9 Squids, cuttlefishes, octopuses       49805
## 10 Shrimps, prawns                       43609
## # ... with 20 more rows
```
10. Use the data to do at least one analysis of your choice.
Question trying to answer: which countries caught the most rays, sharks, and chimaeras from 2000-2012

```r
fisheries_tidy %>% 
  group_by(country) %>% 
  filter(isscaap_taxonomic_group == "Sharks, rays, chimaeras") %>% 
  filter(between(year, 2000, 2012)) %>%   
  select(catch, country, isscaap_taxonomic_group) %>% 
  summarize(total_catch=sum(catch, na.rm=T)) %>% 
  arrange(desc(total_catch))
```

```
## # A tibble: 153 x 2
##    country                  total_catch
##    <chr>                          <dbl>
##  1 Spain                          13666
##  2 Portugal                       13422
##  3 United States of America        6894
##  4 France                          6272
##  5 United Kingdom                  5488
##  6 New Zealand                     5155
##  7 Indonesia                       3320
##  8 Taiwan Province of China        2985
##  9 Uruguay                         2497
## 10 Australia                       2358
## # ... with 143 more rows
```
…
